Project1
…
#tidy correlation matrix
tidycorpivot <- joineddatacorr %>% as.data.frame %>% rownames_to_column("Variable1") %>% 
    pivot_longer(-1, names_to = "Variable2", values_to = "Correlation")
tidycorpivot

## # A tibble: 25 x 3
##    Variable1           Variable2                                    Correlation
##    <chr>               <chr>                                              <dbl>
##  1 Gms                 Gms                                               1     
##  2 Gms                 Fantasy Points/Game                               0.0105
##  3 Gms                 Total Fantasy Points                              0.318 
##  4 Gms                 Contract Value                                    0.0224
##  5 Gms                 Projected Fantasy Points if Played All Games      0.0105
##  6 Fantasy Points/Game Gms                                               0.0105
##  7 Fantasy Points/Game Fantasy Points/Game                               1     
##  8 Fantasy Points/Game Total Fantasy Points                              0.941 
##  9 Fantasy Points/Game Contract Value                                    0.461 
## 10 Fantasy Points/Game Projected Fantasy Points if Played All Games      1     
## # … with 15 more rows
…
